<svg xmlns="http://www.w3.org/2000/svg" width="160" height="160" viewBox="0 0 160 160">
    <g fill="none" fill-rule="evenodd">
        <g>
            <g>
                <g>
                    <g>
                        <g>
                            <path fill="#F0F2F5" d="M18 0H94V40H18z" transform="translate(-108 -278) translate(88 278) translate(20) translate(24 34) translate(0 30)"/>
                            <path fill="#E1E1E3" d="M112 18v38c0 3.314-2.686 6-6 6H6c-3.314 0-6-2.686-6-6V18h40c0 8.837 7.163 16 16 16s16-7.163 16-16h40z" transform="translate(-108 -278) translate(88 278) translate(20) translate(24 34) translate(0 30)"/>
                            <path fill="#E8ECF0" d="M18.182 0L18.182 18 .182 18zM93.818 0L111.818 18 93.818 18z" transform="translate(-108 -278) translate(88 278) translate(20) translate(24 34) translate(0 30)"/>
                        </g>
                        <g transform="translate(-108 -278) translate(88 278) translate(20) translate(24 34) translate(37.5)">
                            <circle cx="18" cy="18" r="20" fill="#FFF" stroke="#333749" stroke-width="4"/>
                            <g fill="#333749" fill-rule="nonzero">
                                <path d="M5.77.2c3.244 0 5.588 1.765 5.588 4.397 0 1.599-.645 2.53-2.41 3.705l-.237.155c-1.257.803-1.796 1.388-1.882 2.231l-.006.018-.01.077-.002.132c-.075.615-.7 1.074-1.592 1.074-1.102 0-1.66-.467-1.66-1.384v-.172c0-1.192.588-1.994 1.981-2.97l.412-.286.361-.262.314-.24c.87-.696 1.135-1.162 1.135-1.889 0-1.14-.88-1.904-2.181-1.904-.929 0-1.651.442-2.266 1.325l-.291.322c-.43.474-.737.643-1.37.643C.789 5.172.2 4.648.2 3.89c0-.288.058-.573.176-.874C.966 1.352 3.04.2 5.77.2zM5.202 13.836c1.134 0 1.953.74 1.953 1.78 0 1.018-.832 1.762-1.953 1.762-1.114 0-1.97-.753-1.97-1.763 0-1.03.842-1.78 1.97-1.78z" transform="translate(12.5 9)"/>
                            </g>
                            <path fill="#333749" d="M32.743 29.743H35.743V38.742999999999995H32.743z" transform="rotate(-45 34.243 34.243)"/>
                            <path fill="#333749" d="M44.006 29.581c1.444 0 2.634 1.13 2.708 2.572l1.16 22.434c.11 2.095-1.501 3.881-3.596 3.99-.066.003-.131.004-.197.004-2.108 0-3.818-1.709-3.818-3.818 0-.059.002-.118.004-.177l1.045-22.432c.067-1.44 1.253-2.573 2.694-2.573z" transform="rotate(-45 44.081 44.081)"/>
                        </g>
                    </g>
                </g>
            </g>
        </g>
    </g>
</svg>
